(module role:role (layer F.Cu) (tedit 5A4E2F68)
  (fp_text reference U4 (at 0 3.556) (layer F.SilkS)
    (effects (font (size 1 1) (thickness 0.15)))
  )
  (fp_text value role (at 4.064 3.556) (layer F.Fab)
    (effects (font (size 1 1) (thickness 0.15)))
  )
  (fp_line (start -1.524 -6.096) (end 5.588 -6.096) (layer B.CrtYd) (width 0.15))
  (fp_line (start 5.588 -6.096) (end 11.176 -11.176) (layer B.CrtYd) (width 0.25))
  (fp_line (start 15.24 2.032) (end 15.24 -14.732) (layer B.CrtYd) (width 0.15))
  (fp_line (start -3.56 -14.732) (end 15.24 -14.732) (layer B.CrtYd) (width 0.15))
  (fp_line (start -3.556 2.032) (end -3.556 -14.732) (layer B.CrtYd) (width 0.15))
  (fp_line (start 15.24 2.032) (end -3.56 2.032) (layer B.CrtYd) (width 0.15))
  (pad 5 thru_hole circle (at 0 0) (size 2.5 2.5) (drill 1) (layers *.Cu *.Mask))
  (pad 4 thru_hole circle (at 0 -12) (size 2.5 2.5) (drill 1) (layers *.Cu *.Mask))
  (pad 3 thru_hole circle (at 12.2 0) (size 2.5 2.5) (drill 1) (layers *.Cu *.Mask))
  (pad 2 thru_hole circle (at 12.2 -12) (size 2.5 2.5) (drill 1) (layers *.Cu *.Mask))
  (pad 1 thru_hole circle (at -2 -6) (size 2.5 2.5) (drill 1) (layers *.Cu *.Mask))
)
