G04 #@! TF.FileFunction,Soldermask,Top*
%FSLAX46Y46*%
G04 Gerber Fmt 4.6, Leading zero omitted, Abs format (unit mm)*
G04 Created by KiCad (PCBNEW 4.0.5+dfsg1-4) date Fri Dec 29 10:00:24 2017*
%MOMM*%
%LPD*%
G01*
G04 APERTURE LIST*
%ADD10C,0.100000*%
%ADD11C,3.100000*%
%ADD12C,2.900000*%
%ADD13C,3.400000*%
%ADD14O,3.400000X3.400000*%
%ADD15C,2.700000*%
%ADD16O,2.200000X3.100000*%
%ADD17C,3.600000*%
%ADD18C,4.400000*%
%ADD19R,3.100000X2.200000*%
%ADD20O,3.100000X2.200000*%
%ADD21R,3.400000X2.400000*%
%ADD22O,3.400000X2.100000*%
%ADD23C,2.600000*%
%ADD24O,2.600000X2.600000*%
%ADD25R,3.400000X2.200000*%
%ADD26O,3.400000X2.300000*%
%ADD27R,2.900000X2.200000*%
%ADD28O,2.900000X2.200000*%
%ADD29R,2.200000X2.200000*%
%ADD30O,2.400000X2.300000*%
%ADD31O,2.400000X2.200000*%
%ADD32R,2.200000X2.900000*%
%ADD33O,2.250000X2.900000*%
%ADD34R,2.100000X2.100000*%
%ADD35R,2.900000X2.100000*%
%ADD36O,3.900000X2.432000*%
G04 APERTURE END LIST*
D10*
D11*
X212725000Y-66040000D03*
X203200000Y-66040000D03*
D12*
X137160000Y-59055000D03*
X137160000Y-65405000D03*
X107950000Y-59055000D03*
X107950000Y-66040000D03*
D13*
X177165000Y-59690000D03*
D14*
X184785000Y-59690000D03*
D13*
X198120000Y-138430000D03*
D14*
X198120000Y-130810000D03*
D13*
X183515000Y-88900000D03*
D14*
X183515000Y-96520000D03*
D15*
X160655000Y-62230000D03*
D14*
X153035000Y-62230000D03*
D13*
X205510000Y-76485000D03*
X207510000Y-82485000D03*
D15*
X219710000Y-82485000D03*
D13*
X207510000Y-70485000D03*
D15*
X219710000Y-70485000D03*
D16*
X190590000Y-126730000D03*
X193130000Y-126730000D03*
X195670000Y-126730000D03*
X198210000Y-126730000D03*
X200750000Y-126730000D03*
X203290000Y-126730000D03*
D17*
X215080000Y-112330000D03*
X215080000Y-116330000D03*
X166580000Y-112330000D03*
X166580000Y-116330000D03*
D12*
X165830000Y-126330000D03*
X215830000Y-126330000D03*
X165830000Y-102330000D03*
X215830000Y-102330000D03*
D16*
X205830000Y-126730000D03*
D13*
X92075000Y-118110000D03*
X103505000Y-118110000D03*
D18*
X222250000Y-137160000D03*
X222250000Y-60960000D03*
X92710000Y-137160000D03*
X92710000Y-60960000D03*
D19*
X147320000Y-114300000D03*
D20*
X147320000Y-116840000D03*
X147320000Y-119380000D03*
X147320000Y-121920000D03*
D13*
X175260000Y-88900000D03*
D14*
X175260000Y-96520000D03*
D13*
X120650000Y-66040000D03*
D14*
X113030000Y-66040000D03*
D21*
X100330000Y-107950000D03*
D22*
X100330000Y-110490000D03*
D13*
X111125000Y-86360000D03*
D14*
X111125000Y-78740000D03*
D13*
X166370000Y-91440000D03*
D14*
X158750000Y-91440000D03*
D23*
X118000000Y-97000000D03*
D24*
X118000000Y-89500000D03*
D25*
X203200000Y-92710000D03*
D26*
X203200000Y-95250000D03*
D27*
X193040000Y-71120000D03*
D28*
X193040000Y-73660000D03*
X193040000Y-76200000D03*
D27*
X170180000Y-71120000D03*
D28*
X170180000Y-73660000D03*
X170180000Y-76200000D03*
D27*
X181610000Y-71120000D03*
D28*
X181610000Y-73660000D03*
X181610000Y-76200000D03*
D29*
X118110000Y-72390000D03*
D30*
X118110000Y-74930000D03*
D31*
X118110000Y-77470000D03*
X118110000Y-80010000D03*
D32*
X210185000Y-61595000D03*
D33*
X212725000Y-61595000D03*
D34*
X152400000Y-71120000D03*
D28*
X152400000Y-73660000D03*
X152400000Y-76200000D03*
X152400000Y-78740000D03*
X152400000Y-81280000D03*
X152400000Y-83820000D03*
X152400000Y-86360000D03*
X152400000Y-88900000D03*
X152400000Y-91440000D03*
X152400000Y-93980000D03*
X152400000Y-96520000D03*
X152400000Y-99060000D03*
X152400000Y-101600000D03*
X152400000Y-104140000D03*
D35*
X124460000Y-71120000D03*
D28*
X124460000Y-73660000D03*
X124460000Y-76200000D03*
X124460000Y-78740000D03*
X124460000Y-81280000D03*
X124460000Y-83820000D03*
X124460000Y-86360000D03*
X124460000Y-88900000D03*
X124460000Y-91440000D03*
X124460000Y-93980000D03*
X124460000Y-96520000D03*
X124460000Y-99060000D03*
X124460000Y-101600000D03*
X124460000Y-104140000D03*
D36*
X102870000Y-74930000D03*
X102870000Y-72390000D03*
X102870000Y-77470000D03*
D27*
X134620000Y-71120000D03*
D28*
X142240000Y-104140000D03*
X134620000Y-73660000D03*
X142240000Y-101600000D03*
X134620000Y-76200000D03*
X142240000Y-99060000D03*
X134620000Y-78740000D03*
X142240000Y-96520000D03*
X134620000Y-81280000D03*
X142240000Y-93980000D03*
X134620000Y-83820000D03*
X142240000Y-91440000D03*
X134620000Y-86360000D03*
X142240000Y-88900000D03*
X134620000Y-88900000D03*
X142240000Y-86360000D03*
X134620000Y-91440000D03*
X142240000Y-83820000D03*
X134620000Y-93980000D03*
X142240000Y-81280000D03*
X134620000Y-96520000D03*
X142240000Y-78740000D03*
X134620000Y-99060000D03*
X142240000Y-76200000D03*
X134620000Y-101600000D03*
X142240000Y-73660000D03*
X134620000Y-104140000D03*
X142240000Y-71120000D03*
D23*
X99060000Y-96901000D03*
D24*
X106560000Y-96901000D03*
D23*
X106680000Y-89535000D03*
D24*
X99180000Y-89535000D03*
M02*
