(module mini-pro:mini-pro (layer F.Cu) (tedit 5A4F124C)
  (solder_mask_margin 0.25)
  (solder_paste_margin -0.25)
  (clearance 0.25)
  (fp_text reference uP1 (at 11.43 1.27) (layer F.SilkS)
    (effects (font (size 1.5 1.5) (thickness 0.15)))
  )
  (fp_text value ARDUPROMINI-6 (at 11.43 -1.27) (layer F.SilkS)
    (effects (font (size 1.5 1.5) (thickness 0.15)))
  )
  (fp_line (start 0.635 5.08) (end 0.635 36.195) (layer B.CrtYd) (width 0.15))
  (fp_line (start 0.635 36.195) (end 19.685 36.195) (layer B.CrtYd) (width 0.15))
  (fp_line (start 19.685 36.195) (end 19.685 4.445) (layer B.CrtYd) (width 0.15))
  (fp_line (start 19.685 4.445) (end 0.635 4.445) (layer B.CrtYd) (width 0.15))
  (fp_line (start 0.635 4.445) (end 0.635 5.715) (layer B.CrtYd) (width 0.15))
  (pad 7 thru_hole oval (at 2.54 6.35) (size 2.5 1.8) (drill 0.762) (layers *.Cu *.Mask F.SilkS))
  (pad 8 thru_hole oval (at 2.54 8.89) (size 2.5 1.8) (drill 0.762) (layers *.Cu *.Mask F.SilkS))
  (pad 9 thru_hole oval (at 2.54 11.43) (size 2.5 1.8) (drill 0.762) (layers *.Cu *.Mask F.SilkS))
  (pad 10 thru_hole oval (at 2.54 13.97) (size 2.5 1.8) (drill 0.762) (layers *.Cu *.Mask F.SilkS))
  (pad 11 thru_hole oval (at 2.54 16.51) (size 2.5 1.8) (drill 0.762) (layers *.Cu *.Mask F.SilkS))
  (pad 12 thru_hole oval (at 2.54 19.05) (size 2.5 1.8) (drill 0.762) (layers *.Cu *.Mask F.SilkS))
  (pad 13 thru_hole oval (at 2.54 21.59) (size 2.5 1.8) (drill 0.762) (layers *.Cu *.Mask F.SilkS))
  (pad 14 thru_hole oval (at 2.54 24.13) (size 2.5 1.8) (drill 0.762) (layers *.Cu *.Mask F.SilkS))
  (pad 15 thru_hole oval (at 2.54 26.67) (size 2.5 1.8) (drill 0.762) (layers *.Cu *.Mask F.SilkS))
  (pad 16 thru_hole oval (at 2.54 29.21) (size 2.5 1.8) (drill 0.762) (layers *.Cu *.Mask F.SilkS))
  (pad 17 thru_hole oval (at 2.54 31.75) (size 2.5 1.8) (drill 0.762) (layers *.Cu *.Mask F.SilkS))
  (pad 18 thru_hole oval (at 2.54 34.29) (size 2.5 1.8) (drill 0.762) (layers *.Cu *.Mask F.SilkS))
  (pad 19 thru_hole oval (at 17.78 6.35) (size 2.5 1.8) (drill 0.762) (layers *.Cu *.Mask F.SilkS))
  (pad 20 thru_hole oval (at 17.78 8.89) (size 2.5 1.8) (drill 0.762) (layers *.Cu *.Mask F.SilkS))
  (pad 21 thru_hole oval (at 17.78 11.43) (size 2.5 1.8) (drill 0.762) (layers *.Cu *.Mask F.SilkS))
  (pad 22 thru_hole oval (at 17.78 13.97) (size 2.5 1.8) (drill 0.762) (layers *.Cu *.Mask F.SilkS))
  (pad 23 thru_hole oval (at 17.78 16.51) (size 2.5 1.8) (drill 0.762) (layers *.Cu *.Mask F.SilkS))
  (pad 24 thru_hole oval (at 17.78 19.05) (size 2.5 1.8) (drill 0.762) (layers *.Cu *.Mask F.SilkS))
  (pad 25 thru_hole oval (at 17.78 21.59) (size 2.5 1.8) (drill 0.762) (layers *.Cu *.Mask F.SilkS))
  (pad 26 thru_hole oval (at 17.78 24.13) (size 2.5 1.8) (drill 0.762) (layers *.Cu *.Mask F.SilkS))
  (pad 27 thru_hole oval (at 17.78 26.67) (size 2.5 1.8) (drill 0.762) (layers *.Cu *.Mask F.SilkS))
  (pad 28 thru_hole oval (at 17.78 29.21) (size 2.5 1.8) (drill 0.762) (layers *.Cu *.Mask F.SilkS))
  (pad 29 thru_hole oval (at 17.78 31.75) (size 2.5 1.8) (drill 0.762) (layers *.Cu *.Mask F.SilkS))
  (pad 30 thru_hole oval (at 17.78 34.29) (size 2.5 1.8) (drill 0.762) (layers *.Cu *.Mask F.SilkS))
  (pad 31 thru_hole oval (at 14.859 15.113) (size 2.7 1.8) (drill 0.6 (offset -0.4 0)) (layers *.Cu *.Mask F.SilkS))
  (pad 32 thru_hole oval (at 14.859 17.653) (size 2.7 1.8) (drill 0.6 (offset -0.4 0)) (layers *.Cu *.Mask F.SilkS))
  (pad 34 thru_hole oval (at 14.859 25.527) (size 2.7 1.8) (drill 0.6 (offset -0.4 0)) (layers *.Cu *.Mask F.SilkS))
  (pad 35 thru_hole oval (at 14.859 28.067) (size 2.7 1.8) (drill 0.6 (offset -0.4 0)) (layers *.Cu *.Mask F.SilkS))
)
