EESchema Schematic File Version 2
LIBS:power
LIBS:device
LIBS:switches
LIBS:relays
LIBS:motors
LIBS:transistors
LIBS:conn
LIBS:linear
LIBS:regul
LIBS:74xx
LIBS:cmos4000
LIBS:adc-dac
LIBS:memory
LIBS:xilinx
LIBS:microcontrollers
LIBS:dsp
LIBS:microchip
LIBS:analog_switches
LIBS:motorola
LIBS:texas
LIBS:intel
LIBS:audio
LIBS:interface
LIBS:digital-audio
LIBS:philips
LIBS:display
LIBS:cypress
LIBS:siliconi
LIBS:opto
LIBS:atmel
LIBS:contrib
LIBS:valves
LIBS:arduino
LIBS:ArduProMiniTKB
LIBS:hmi-display
LIBS:motors-vnh2sp30
LIBS:bluetooth
LIBS:role
LIBS:rg-steel-doors-cache
EELAYER 25 0
EELAYER END
$Descr A4 11693 8268
encoding utf-8
Sheet 1 1
Title ""
Date ""
Rev ""
Comp ""
Comment1 ""
Comment2 ""
Comment3 ""
Comment4 ""
$EndDescr
$Comp
L GND #PWR19
U 1 1 5A4E1BA3
P 4600 1500
F 0 "#PWR19" H 4600 1250 50  0001 C CNN
F 1 "GND" V 4600 1300 50  0000 C CNN
F 2 "" H 4600 1500 50  0001 C CNN
F 3 "" H 4600 1500 50  0001 C CNN
	1    4600 1500
	0    1    1    0   
$EndComp
Text GLabel 5550 2550 2    41   Input ~ 0
RST
$Comp
L ARDUPROMINI-6 uP1
U 1 1 5A4E1809
P 4950 2950
F 0 "uP1" H 4750 2850 60  0000 C CNN
F 1 "ARDUPROMINI-6" H 4950 3750 60  0000 C CNN
F 2 "ArduProMiniTKB:ArduProMini-6" H 4950 2950 60  0001 C CNN
F 3 "" H 4950 2950 60  0000 C CNN
	1    4950 2950
	1    0    0    -1  
$EndComp
Text GLabel 5550 3050 2    41   Input ~ 0
A0
Text GLabel 5550 2950 2    41   Input ~ 0
A1
Text GLabel 5550 2850 2    41   Input ~ 0
A2
$Comp
L hmi-display-RESCUE-rg-steel-doors U1
U 1 1 5A4E22E9
P 3550 2400
F 0 "U1" H 3550 2150 60  0000 C CNN
F 1 "hmi-display" H 3550 2650 60  0000 C CNN
F 2 "Pin_Headers:Pin_Header_Straight_1x04_Pitch2.54mm" H 3600 2200 60  0001 C CNN
F 3 "" H 3600 2200 60  0001 C CNN
	1    3550 2400
	1    0    0    -1  
$EndComp
$Comp
L GND #PWR11
U 1 1 5A4E23A1
P 3050 2450
F 0 "#PWR11" H 3050 2200 50  0001 C CNN
F 1 "GND" V 3050 2250 50  0000 C CNN
F 2 "" H 3050 2450 50  0001 C CNN
F 3 "" H 3050 2450 50  0001 C CNN
	1    3050 2450
	0    1    1    0   
$EndComp
$Comp
L +12V #PWR3
U 1 1 5A4E28C7
P 1700 4350
F 0 "#PWR3" H 1700 4200 50  0001 C CNN
F 1 "+12V" V 1700 4600 50  0000 C CNN
F 2 "" H 1700 4350 50  0001 C CNN
F 3 "" H 1700 4350 50  0001 C CNN
	1    1700 4350
	0    -1   -1   0   
$EndComp
Text GLabel 4350 2750 0    41   Input ~ 0
D2
$Comp
L SW_Push SW1
U 1 1 5A4E2B35
P 1900 4350
F 0 "SW1" H 1950 4450 50  0000 L CNN
F 1 "SW_KilitButon" H 1900 4290 50  0000 C CNN
F 2 "Pin_Headers:Pin_Header_Straight_1x02_Pitch2.54mm" H 1900 4550 50  0001 C CNN
F 3 "" H 1900 4550 50  0001 C CNN
	1    1900 4350
	-1   0    0    1   
$EndComp
$Comp
L GND #PWR6
U 1 1 5A4E2E22
P 2400 3350
F 0 "#PWR6" H 2400 3100 50  0001 C CNN
F 1 "GND" V 2400 3150 50  0000 C CNN
F 2 "" H 2400 3350 50  0001 C CNN
F 3 "" H 2400 3350 50  0001 C CNN
	1    2400 3350
	-1   0    0    1   
$EndComp
Text GLabel 2850 4400 3    41   Input ~ 0
D2
$Comp
L R 1K1
U 1 1 5A4E313D
P 2850 4250
F 0 "1K1" V 2930 4250 50  0000 C CNN
F 1 "R" V 2850 4250 50  0000 C CNN
F 2 "Resistors_THT:R_Axial_DIN0204_L3.6mm_D1.6mm_P7.62mm_Horizontal" V 2780 4250 50  0001 C CNN
F 3 "" H 2850 4250 50  0001 C CNN
	1    2850 4250
	1    0    0    -1  
$EndComp
$Comp
L GND #PWR9
U 1 1 5A4E3343
P 3000 3350
F 0 "#PWR9" H 3000 3100 50  0001 C CNN
F 1 "GND" V 3000 3150 50  0000 C CNN
F 2 "" H 3000 3350 50  0001 C CNN
F 3 "" H 3000 3350 50  0001 C CNN
	1    3000 3350
	-1   0    0    1   
$EndComp
$Comp
L SW_DPDT_x2 SW2
U 1 1 5A4E352D
P 4000 4300
F 0 "SW2" H 4000 4470 50  0000 C CNN
F 1 "SW_Kapi" H 4000 4100 50  0000 C CNN
F 2 "Pin_Headers:Pin_Header_Straight_1x03_Pitch2.54mm" H 4000 4300 50  0001 C CNN
F 3 "" H 4000 4300 50  0001 C CNN
	1    4000 4300
	1    0    0    -1  
$EndComp
$Comp
L SW_DPDT_x2 SW3
U 1 1 5A4E364D
P 5050 4300
F 0 "SW3" H 5050 4470 50  0000 C CNN
F 1 "SW_Kilit-Kapali" H 5050 4100 50  0000 C CNN
F 2 "Pin_Headers:Pin_Header_Straight_1x03_Pitch2.54mm" H 5050 4300 50  0001 C CNN
F 3 "" H 5050 4300 50  0001 C CNN
	1    5050 4300
	1    0    0    -1  
$EndComp
$Comp
L SW_DPDT_x2 SW4
U 1 1 5A4E3698
P 6150 4300
F 0 "SW4" H 6150 4470 50  0000 C CNN
F 1 "SW_Kilit-Acik" H 6150 4100 50  0000 C CNN
F 2 "Pin_Headers:Pin_Header_Straight_1x03_Pitch2.54mm" H 6150 4300 50  0001 C CNN
F 3 "" H 6150 4300 50  0001 C CNN
	1    6150 4300
	1    0    0    -1  
$EndComp
Text GLabel 3800 4300 0    41   Input ~ 0
A0
Text GLabel 4850 4300 0    41   Input ~ 0
A1
Text GLabel 5950 4300 0    41   Input ~ 0
A2
$Comp
L GND #PWR15
U 1 1 5A4E3E25
P 4200 4400
F 0 "#PWR15" H 4200 4150 50  0001 C CNN
F 1 "GND" V 4200 4200 50  0000 C CNN
F 2 "" H 4200 4400 50  0001 C CNN
F 3 "" H 4200 4400 50  0001 C CNN
	1    4200 4400
	0    -1   -1   0   
$EndComp
$Comp
L GND #PWR20
U 1 1 5A4E40BE
P 5250 4400
F 0 "#PWR20" H 5250 4150 50  0001 C CNN
F 1 "GND" V 5250 4200 50  0000 C CNN
F 2 "" H 5250 4400 50  0001 C CNN
F 3 "" H 5250 4400 50  0001 C CNN
	1    5250 4400
	0    -1   -1   0   
$EndComp
$Comp
L GND #PWR27
U 1 1 5A4E40F7
P 6350 4200
F 0 "#PWR27" H 6350 3950 50  0001 C CNN
F 1 "GND" V 6350 4000 50  0000 C CNN
F 2 "" H 6350 4200 50  0001 C CNN
F 3 "" H 6350 4200 50  0001 C CNN
	1    6350 4200
	0    -1   -1   0   
$EndComp
$Comp
L MotorS-VNH2SP30 U3
U 1 1 5A4E4369
P 6500 2700
F 0 "U3" H 7150 2300 60  0000 C CNN
F 1 "MotorS-VNH2SP30" V 7350 2600 60  0000 C CNN
F 2 "vnh2sp30:Motor-VNH2SP30" H 6700 2300 60  0001 C CNN
F 3 "" H 6700 2300 60  0001 C CNN
	1    6500 2700
	1    0    0    -1  
$EndComp
Text GLabel 4350 3050 0    41   Input ~ 0
D5
Text GLabel 4350 2950 0    41   Input ~ 0
D4
Text GLabel 4350 3250 0    41   Input ~ 0
D7
Text GLabel 5000 3700 3    41   Input ~ 0
A5
$Comp
L GND #PWR25
U 1 1 5A4E4891
P 6250 3000
F 0 "#PWR25" H 6250 2750 50  0001 C CNN
F 1 "GND" V 6250 2800 50  0000 C CNN
F 2 "" H 6250 3000 50  0001 C CNN
F 3 "" H 6250 3000 50  0001 C CNN
	1    6250 3000
	0    1    1    0   
$EndComp
Text GLabel 6250 2800 0    41   Input ~ 0
A5
Text GLabel 6250 2600 0    41   Input ~ 0
D5
Text GLabel 6250 2700 0    41   Input ~ 0
D7
Text GLabel 6250 2500 0    41   Input ~ 0
D4
$Comp
L +12V #PWR29
U 1 1 5A4E524D
P 6800 2000
F 0 "#PWR29" H 6800 1850 50  0001 C CNN
F 1 "+12V" V 6800 2250 50  0000 C CNN
F 2 "" H 6800 2000 50  0001 C CNN
F 3 "" H 6800 2000 50  0001 C CNN
	1    6800 2000
	1    0    0    -1  
$EndComp
$Comp
L GND #PWR30
U 1 1 5A4E52E0
P 6950 2000
F 0 "#PWR30" H 6950 1750 50  0001 C CNN
F 1 "GND" V 6950 1800 50  0000 C CNN
F 2 "" H 6950 2000 50  0001 C CNN
F 3 "" H 6950 2000 50  0001 C CNN
	1    6950 2000
	-1   0    0    1   
$EndComp
$Comp
L Conn_01x02 J1
U 1 1 5A4E5473
P 7100 4350
F 0 "J1" H 7100 4450 50  0000 C CNN
F 1 "Motor Out" H 7100 4150 50  0000 C CNN
F 2 "Pin_Headers:Pin_Header_Straight_1x02_Pitch2.54mm" H 7100 4350 50  0001 C CNN
F 3 "" H 7100 4350 50  0001 C CNN
	1    7100 4350
	-1   0    0    1   
$EndComp
Text GLabel 6750 3650 3    60   Input ~ 0
MA
Text GLabel 6950 3650 3    60   Input ~ 0
MB
Text GLabel 7300 4350 2    43   Input ~ 0
MA
Text GLabel 7300 4250 2    43   Input ~ 0
MB
$Comp
L Bluetooth U2
U 1 1 5A4E5AB2
P 4750 1750
F 0 "U2" H 5000 1600 60  0000 C CNN
F 1 "Bluetooth" H 5000 2350 60  0000 C CNN
F 2 "hc06:hc-06" H 4750 1750 60  0001 C CNN
F 3 "" H 4750 1750 60  0001 C CNN
	1    4750 1750
	1    0    0    -1  
$EndComp
$Comp
L +5V #PWR18
U 1 1 5A4E5B28
P 4600 1400
F 0 "#PWR18" H 4600 1250 50  0001 C CNN
F 1 "+5V" V 4600 1600 50  0000 C CNN
F 2 "" H 4600 1400 50  0001 C CNN
F 3 "" H 4600 1400 50  0001 C CNN
	1    4600 1400
	0    -1   -1   0   
$EndComp
Text GLabel 4350 3450 0    41   Input ~ 0
D9
Text GLabel 5550 3450 2    41   Input ~ 0
D10
Text GLabel 4600 1700 0    41   Input ~ 0
D9
Text GLabel 4600 1600 0    41   Input ~ 0
D10
$Comp
L role U4
U 1 1 5A4E6D81
P 2700 3900
F 0 "U4" H 2600 4050 60  0000 C CNN
F 1 "role" H 2600 3900 60  0000 C CNN
F 2 "role:role" H 2700 3900 60  0001 C CNN
F 3 "" H 2700 3900 60  0001 C CNN
	1    2700 3900
	1    0    0    -1  
$EndComp
$Comp
L R R1
U 1 1 5A4E745A
P 4350 4200
F 0 "R1" V 4430 4200 50  0000 C CNN
F 1 "1K" V 4350 4200 50  0000 C CNN
F 2 "Resistors_THT:R_Axial_DIN0204_L3.6mm_D1.6mm_P7.62mm_Horizontal" V 4280 4200 50  0001 C CNN
F 3 "" H 4350 4200 50  0001 C CNN
	1    4350 4200
	0    1    1    0   
$EndComp
$Comp
L Conn_01x02 J2
U 1 1 5A4E7805
P 3500 1750
F 0 "J2" H 3500 1850 50  0000 C CNN
F 1 "POWER" H 3500 1550 50  0000 C CNN
F 2 "Pin_Headers:Pin_Header_Straight_1x02_Pitch2.54mm" H 3500 1750 50  0001 C CNN
F 3 "" H 3500 1750 50  0001 C CNN
	1    3500 1750
	-1   0    0    1   
$EndComp
$Comp
L +12V #PWR14
U 1 1 5A4E78A6
P 3700 1750
F 0 "#PWR14" H 3700 1600 50  0001 C CNN
F 1 "+12V" V 3700 2000 50  0000 C CNN
F 2 "" H 3700 1750 50  0001 C CNN
F 3 "" H 3700 1750 50  0001 C CNN
	1    3700 1750
	0    1    1    0   
$EndComp
$Comp
L GND #PWR13
U 1 1 5A4E78E5
P 3700 1650
F 0 "#PWR13" H 3700 1400 50  0001 C CNN
F 1 "GND" V 3700 1450 50  0000 C CNN
F 2 "" H 3700 1650 50  0001 C CNN
F 3 "" H 3700 1650 50  0001 C CNN
	1    3700 1650
	0    -1   -1   0   
$EndComp
$Comp
L R R2
U 1 1 5A4F18C6
P 5400 4200
F 0 "R2" V 5480 4200 50  0000 C CNN
F 1 "1K" V 5400 4200 50  0000 C CNN
F 2 "Resistors_THT:R_Axial_DIN0204_L3.6mm_D1.6mm_P7.62mm_Horizontal" V 5330 4200 50  0001 C CNN
F 3 "" H 5400 4200 50  0001 C CNN
	1    5400 4200
	0    1    1    0   
$EndComp
$Comp
L R R3
U 1 1 5A4F19BC
P 6500 4400
F 0 "R3" V 6580 4400 50  0000 C CNN
F 1 "1K" V 6500 4400 50  0000 C CNN
F 2 "Resistors_THT:R_Axial_DIN0204_L3.6mm_D1.6mm_P7.62mm_Horizontal" V 6430 4400 50  0001 C CNN
F 3 "" H 6500 4400 50  0001 C CNN
	1    6500 4400
	0    1    1    0   
$EndComp
$Comp
L GND #PWR16
U 1 1 5A4F20AE
P 4350 2650
F 0 "#PWR16" H 4350 2400 50  0001 C CNN
F 1 "GND" V 4350 2450 50  0000 C CNN
F 2 "" H 4350 2650 50  0001 C CNN
F 3 "" H 4350 2650 50  0001 C CNN
	1    4350 2650
	0    1    1    0   
$EndComp
$Comp
L L7805 U5
U 1 1 5A4F4389
P 2000 2100
F 0 "U5" H 1850 2225 50  0000 C CNN
F 1 "L7805" H 2000 2225 50  0000 L CNN
F 2 "7805:lm7805-with-heatsink" H 2025 1950 50  0001 L CIN
F 3 "" H 2000 2050 50  0001 C CNN
	1    2000 2100
	1    0    0    -1  
$EndComp
$Comp
L +12V #PWR1
U 1 1 5A4F45BA
P 1400 2100
F 0 "#PWR1" H 1400 1950 50  0001 C CNN
F 1 "+12V" V 1400 2350 50  0000 C CNN
F 2 "" H 1400 2100 50  0001 C CNN
F 3 "" H 1400 2100 50  0001 C CNN
	1    1400 2100
	0    -1   -1   0   
$EndComp
$Comp
L GND #PWR4
U 1 1 5A4F4781
P 2000 2400
F 0 "#PWR4" H 2000 2150 50  0001 C CNN
F 1 "GND" V 2000 2200 50  0000 C CNN
F 2 "" H 2000 2400 50  0001 C CNN
F 3 "" H 2000 2400 50  0001 C CNN
	1    2000 2400
	1    0    0    -1  
$EndComp
$Comp
L +5V #PWR7
U 1 1 5A4F497B
P 2550 2100
F 0 "#PWR7" H 2550 1950 50  0001 C CNN
F 1 "+5V" V 2550 2300 50  0000 C CNN
F 2 "" H 2550 2100 50  0001 C CNN
F 3 "" H 2550 2100 50  0001 C CNN
	1    2550 2100
	0    1    1    0   
$EndComp
$Comp
L D D1
U 1 1 5A4F50D1
P 2000 1700
F 0 "D1" H 2000 1800 50  0000 C CNN
F 1 "D" H 2000 1600 50  0000 C CNN
F 2 "Diodes_THT:D_A-405_P7.62mm_Horizontal" H 2000 1700 50  0001 C CNN
F 3 "" H 2000 1700 50  0001 C CNN
	1    2000 1700
	1    0    0    -1  
$EndComp
Wire Wire Line
	2300 2100 2300 1700
Wire Wire Line
	2300 1700 2150 1700
Wire Wire Line
	1850 1700 1700 1700
Wire Wire Line
	1700 1700 1700 2100
Wire Wire Line
	1700 2100 1400 2100
Wire Wire Line
	2550 2100 2300 2100
Wire Wire Line
	1550 2100 1550 2250
Connection ~ 1550 2100
$Comp
L GND #PWR2
U 1 1 5A4F55EC
P 1550 2550
F 0 "#PWR2" H 1550 2300 50  0001 C CNN
F 1 "GND" V 1550 2350 50  0000 C CNN
F 2 "" H 1550 2550 50  0001 C CNN
F 3 "" H 1550 2550 50  0001 C CNN
	1    1550 2550
	1    0    0    -1  
$EndComp
$Comp
L GND #PWR5
U 1 1 5A4F56C0
P 2400 2550
F 0 "#PWR5" H 2400 2300 50  0001 C CNN
F 1 "GND" V 2400 2350 50  0000 C CNN
F 2 "" H 2400 2550 50  0001 C CNN
F 3 "" H 2400 2550 50  0001 C CNN
	1    2400 2550
	1    0    0    -1  
$EndComp
Connection ~ 2400 2100
Wire Wire Line
	2400 2250 2400 2100
$Comp
L +5V #PWR22
U 1 1 5A4F61B8
P 5550 2650
F 0 "#PWR22" H 5550 2500 50  0001 C CNN
F 1 "+5V" V 5550 2850 50  0000 C CNN
F 2 "" H 5550 2650 50  0001 C CNN
F 3 "" H 5550 2650 50  0001 C CNN
	1    5550 2650
	0    1    1    0   
$EndComp
$Comp
L CP C0
U 1 1 5A4F6676
P 2400 2400
F 0 "C0" H 2425 2500 50  0000 L CNN
F 1 "0.1uF" H 2425 2300 50  0000 L CNN
F 2 "Capacitors_THT:CP_Radial_D8.0mm_P3.50mm" H 2438 2250 50  0001 C CNN
F 3 "" H 2400 2400 50  0001 C CNN
	1    2400 2400
	1    0    0    -1  
$EndComp
$Comp
L CP C1
U 1 1 5A4F6A90
P 1550 2400
F 0 "C1" H 1575 2500 50  0000 L CNN
F 1 "0.33uF" H 1575 2300 50  0000 L CNN
F 2 "Capacitors_THT:CP_Radial_D8.0mm_P3.50mm" H 1588 2250 50  0001 C CNN
F 3 "" H 1550 2400 50  0001 C CNN
	1    1550 2400
	1    0    0    -1  
$EndComp
$Comp
L +5V #PWR17
U 1 1 5A4F756D
P 4500 4200
F 0 "#PWR17" H 4500 4050 50  0001 C CNN
F 1 "+5V" V 4500 4400 50  0000 C CNN
F 2 "" H 4500 4200 50  0001 C CNN
F 3 "" H 4500 4200 50  0001 C CNN
	1    4500 4200
	0    1    1    0   
$EndComp
$Comp
L +5V #PWR23
U 1 1 5A4F75B1
P 5550 4200
F 0 "#PWR23" H 5550 4050 50  0001 C CNN
F 1 "+5V" V 5550 4400 50  0000 C CNN
F 2 "" H 5550 4200 50  0001 C CNN
F 3 "" H 5550 4200 50  0001 C CNN
	1    5550 4200
	0    1    1    0   
$EndComp
$Comp
L +5V #PWR28
U 1 1 5A4F75F5
P 6650 4400
F 0 "#PWR28" H 6650 4250 50  0001 C CNN
F 1 "+5V" V 6650 4600 50  0000 C CNN
F 2 "" H 6650 4400 50  0001 C CNN
F 3 "" H 6650 4400 50  0001 C CNN
	1    6650 4400
	0    1    1    0   
$EndComp
$Comp
L +5V #PWR26
U 1 1 5A4F782C
P 6250 3100
F 0 "#PWR26" H 6250 2950 50  0001 C CNN
F 1 "+5V" V 6250 3300 50  0000 C CNN
F 2 "" H 6250 3100 50  0001 C CNN
F 3 "" H 6250 3100 50  0001 C CNN
	1    6250 3100
	0    -1   -1   0   
$EndComp
$Comp
L +5V #PWR24
U 1 1 5A4F794E
P 6250 2900
F 0 "#PWR24" H 6250 2750 50  0001 C CNN
F 1 "+5V" V 6250 3100 50  0000 C CNN
F 2 "" H 6250 2900 50  0001 C CNN
F 3 "" H 6250 2900 50  0001 C CNN
	1    6250 2900
	0    -1   -1   0   
$EndComp
$Comp
L GND #PWR21
U 1 1 5A4F8BDB
P 5550 2450
F 0 "#PWR21" H 5550 2200 50  0001 C CNN
F 1 "GND" V 5550 2250 50  0000 C CNN
F 2 "" H 5550 2450 50  0001 C CNN
F 3 "" H 5550 2450 50  0001 C CNN
	1    5550 2450
	0    -1   -1   0   
$EndComp
$Comp
L R 50R1
U 1 1 5A535859
P 2250 4350
F 0 "50R1" V 2330 4350 50  0000 C CNN
F 1 "R" V 2250 4350 50  0000 C CNN
F 2 "Resistors_THT:R_Axial_DIN0207_L6.3mm_D2.5mm_P15.24mm_Horizontal" V 2180 4350 50  0001 C CNN
F 3 "" H 2250 4350 50  0001 C CNN
	1    2250 4350
	0    1    1    0   
$EndComp
Wire Wire Line
	2400 4350 2400 4100
Wire Wire Line
	4350 2350 4050 2350
$Comp
L +5V #PWR10
U 1 1 5A4E236C
P 3050 2350
F 0 "#PWR10" H 3050 2200 50  0001 C CNN
F 1 "+5V" V 3050 2550 50  0000 C CNN
F 2 "" H 3050 2350 50  0001 C CNN
F 3 "" H 3050 2350 50  0001 C CNN
	1    3050 2350
	0    -1   -1   0   
$EndComp
Wire Wire Line
	4350 2450 4050 2450
$Comp
L +5V #PWR8
U 1 1 5A5399C4
P 2700 3350
F 0 "#PWR8" H 2700 3200 50  0001 C CNN
F 1 "+5V" V 2700 3550 50  0000 C CNN
F 2 "" H 2700 3350 50  0001 C CNN
F 3 "" H 2700 3350 50  0001 C CNN
	1    2700 3350
	1    0    0    -1  
$EndComp
$Comp
L CP C2
U 1 1 5A5487EB
P 3250 4300
F 0 "C2" H 3275 4400 50  0000 L CNN
F 1 "10uF" H 3275 4200 50  0000 L CNN
F 2 "Capacitors_THT:CP_Radial_D8.0mm_P3.50mm" H 3288 4150 50  0001 C CNN
F 3 "" H 3250 4300 50  0001 C CNN
	1    3250 4300
	1    0    0    -1  
$EndComp
Wire Wire Line
	3250 4150 3250 4100
Wire Wire Line
	3250 4100 2850 4100
$Comp
L GND #PWR12
U 1 1 5A548A8D
P 3250 4450
F 0 "#PWR12" H 3250 4200 50  0001 C CNN
F 1 "GND" V 3250 4250 50  0000 C CNN
F 2 "" H 3250 4450 50  0001 C CNN
F 3 "" H 3250 4450 50  0001 C CNN
	1    3250 4450
	1    0    0    -1  
$EndComp
$EndSCHEMATC
