EESchema Schematic File Version 2
LIBS:power
LIBS:device
LIBS:switches
LIBS:relays
LIBS:transistors
LIBS:conn
LIBS:linear
LIBS:regul
LIBS:74xx
LIBS:cmos4000
LIBS:adc-dac
LIBS:memory
LIBS:xilinx
LIBS:microcontrollers
LIBS:dsp
LIBS:microchip
LIBS:analog_switches
LIBS:motorola
LIBS:texas
LIBS:intel
LIBS:audio
LIBS:interface
LIBS:digital-audio
LIBS:philips
LIBS:display
LIBS:cypress
LIBS:siliconi
LIBS:opto
LIBS:atmel
LIBS:contrib
LIBS:valves
LIBS:ArduProMiniTKB
LIBS:hmi-display
LIBS:motors-vnh2sp30
LIBS:bluetooth
LIBS:role
LIBS:Regulator_Switching
LIBS:buzzer
LIBS:rg-steel-doors-cache
EELAYER 25 0
EELAYER END
$Descr A4 11693 8268
encoding utf-8
Sheet 1 1
Title ""
Date ""
Rev ""
Comp ""
Comment1 ""
Comment2 ""
Comment3 ""
Comment4 ""
$EndDescr
$Comp
L GND #PWR01
U 1 1 5A4E1BA3
P 3375 3475
F 0 "#PWR01" H 3375 3225 50  0001 C CNN
F 1 "GND" V 3375 3275 50  0000 C CNN
F 2 "" H 3375 3475 50  0001 C CNN
F 3 "" H 3375 3475 50  0001 C CNN
	1    3375 3475
	0    -1   -1   0   
$EndComp
Text GLabel 5550 2550 2    41   Input ~ 0
RST
$Comp
L ARDUPROMINI-6 uP1
U 1 1 5A4E1809
P 4950 2950
F 0 "uP1" H 4750 2850 60  0000 C CNN
F 1 "ARDUPROMINI-6" H 4950 3750 60  0000 C CNN
F 2 "ArduProMiniTKB:ArduProMini-6" H 4950 2950 60  0001 C CNN
F 3 "" H 4950 2950 60  0000 C CNN
	1    4950 2950
	1    0    0    -1  
$EndComp
Text GLabel 5550 3050 2    41   Input ~ 0
A0
Text GLabel 5550 2950 2    41   Input ~ 0
A1
Text GLabel 5550 2850 2    41   Input ~ 0
A2
$Comp
L hmi-display-RESCUE-rg-steel-doors U1
U 1 1 5A4E22E9
P 3550 2400
F 0 "U1" H 3550 2150 60  0000 C CNN
F 1 "hmi-display" H 3550 2650 60  0000 C CNN
F 2 "Pin_Headers:Pin_Header_Straight_1x04" H 3600 2200 60  0001 C CNN
F 3 "" H 3600 2200 60  0001 C CNN
	1    3550 2400
	1    0    0    -1  
$EndComp
$Comp
L GND #PWR02
U 1 1 5A4E23A1
P 3050 2450
F 0 "#PWR02" H 3050 2200 50  0001 C CNN
F 1 "GND" V 3050 2250 50  0000 C CNN
F 2 "" H 3050 2450 50  0001 C CNN
F 3 "" H 3050 2450 50  0001 C CNN
	1    3050 2450
	0    1    1    0   
$EndComp
Text GLabel 4350 2750 0    41   Input ~ 0
D2
Text GLabel 900  3225 0    59   Input ~ 0
D2
$Comp
L GND #PWR03
U 1 1 5A4E3343
P 1725 4125
F 0 "#PWR03" H 1725 3875 50  0001 C CNN
F 1 "GND" V 1725 3925 50  0000 C CNN
F 2 "" H 1725 4125 50  0001 C CNN
F 3 "" H 1725 4125 50  0001 C CNN
	1    1725 4125
	1    0    0    -1  
$EndComp
$Comp
L SW_DPDT_x2 SW2
U 1 1 5A4E352D
P 4000 4300
F 0 "SW2" H 4000 4470 50  0000 C CNN
F 1 "SW_Kapi" H 4125 4075 50  0000 C CNN
F 2 "Pin_Headers:Pin_Header_Straight_1x02" H 4000 4300 50  0001 C CNN
F 3 "" H 4000 4300 50  0001 C CNN
	1    4000 4300
	1    0    0    -1  
$EndComp
$Comp
L SW_DPDT_x2 SW3
U 1 1 5A4E364D
P 5050 4300
F 0 "SW3" H 5050 4470 50  0000 C CNN
F 1 "SW_Kilit-Kapali" H 5300 4075 50  0000 C CNN
F 2 "Pin_Headers:Pin_Header_Straight_1x02" H 5050 4300 50  0001 C CNN
F 3 "" H 5050 4300 50  0001 C CNN
	1    5050 4300
	1    0    0    -1  
$EndComp
$Comp
L SW_DPDT_x2 SW4
U 1 1 5A4E3698
P 6150 4300
F 0 "SW4" H 6150 4470 50  0000 C CNN
F 1 "SW_Kilit-Acik" H 6375 4075 50  0000 C CNN
F 2 "Pin_Headers:Pin_Header_Straight_1x02" H 6150 4300 50  0001 C CNN
F 3 "" H 6150 4300 50  0001 C CNN
	1    6150 4300
	1    0    0    -1  
$EndComp
Text GLabel 3800 4300 0    41   Input ~ 0
A0
Text GLabel 4850 4300 0    41   Input ~ 0
A1
Text GLabel 5950 4300 0    41   Input ~ 0
A2
$Comp
L GND #PWR04
U 1 1 5A4E3E25
P 4200 4400
F 0 "#PWR04" H 4200 4150 50  0001 C CNN
F 1 "GND" V 4200 4200 50  0000 C CNN
F 2 "" H 4200 4400 50  0001 C CNN
F 3 "" H 4200 4400 50  0001 C CNN
	1    4200 4400
	0    -1   -1   0   
$EndComp
$Comp
L GND #PWR05
U 1 1 5A4E40BE
P 5250 4400
F 0 "#PWR05" H 5250 4150 50  0001 C CNN
F 1 "GND" V 5250 4200 50  0000 C CNN
F 2 "" H 5250 4400 50  0001 C CNN
F 3 "" H 5250 4400 50  0001 C CNN
	1    5250 4400
	0    -1   -1   0   
$EndComp
$Comp
L GND #PWR06
U 1 1 5A4E40F7
P 6350 4400
F 0 "#PWR06" H 6350 4150 50  0001 C CNN
F 1 "GND" V 6350 4200 50  0000 C CNN
F 2 "" H 6350 4400 50  0001 C CNN
F 3 "" H 6350 4400 50  0001 C CNN
	1    6350 4400
	0    -1   -1   0   
$EndComp
$Comp
L MotorS-VNH2SP30 U3
U 1 1 5A4E4369
P 6500 2700
F 0 "U3" H 7150 2300 60  0000 C CNN
F 1 "MotorS-VNH2SP30" V 7350 2600 60  0000 C CNN
F 2 "vnh2sp30:Motor-VNH2SP30" H 6700 2300 60  0001 C CNN
F 3 "" H 6700 2300 60  0001 C CNN
	1    6500 2700
	1    0    0    -1  
$EndComp
Text GLabel 4350 3050 0    41   Input ~ 0
D5
Text GLabel 4350 2950 0    41   Input ~ 0
D4
Text GLabel 4350 3250 0    41   Input ~ 0
D7
Text GLabel 5000 3700 3    41   Input ~ 0
A5
$Comp
L GND #PWR07
U 1 1 5A4E4891
P 6250 3000
F 0 "#PWR07" H 6250 2750 50  0001 C CNN
F 1 "GND" V 6250 2800 50  0000 C CNN
F 2 "" H 6250 3000 50  0001 C CNN
F 3 "" H 6250 3000 50  0001 C CNN
	1    6250 3000
	0    1    1    0   
$EndComp
Text GLabel 6250 2800 0    41   Input ~ 0
A5
Text GLabel 6250 2600 0    41   Input ~ 0
D5
Text GLabel 6250 2700 0    41   Input ~ 0
D7
Text GLabel 6250 2500 0    41   Input ~ 0
D4
$Comp
L +12V #PWR08
U 1 1 5A4E524D
P 6800 2000
F 0 "#PWR08" H 6800 1850 50  0001 C CNN
F 1 "+12V" V 6800 2250 50  0000 C CNN
F 2 "" H 6800 2000 50  0001 C CNN
F 3 "" H 6800 2000 50  0001 C CNN
	1    6800 2000
	1    0    0    -1  
$EndComp
$Comp
L GND #PWR09
U 1 1 5A4E52E0
P 6950 2000
F 0 "#PWR09" H 6950 1750 50  0001 C CNN
F 1 "GND" V 6950 1800 50  0000 C CNN
F 2 "" H 6950 2000 50  0001 C CNN
F 3 "" H 6950 2000 50  0001 C CNN
	1    6950 2000
	-1   0    0    1   
$EndComp
$Comp
L Conn_01x02 J1
U 1 1 5A4E5473
P 7100 4350
F 0 "J1" H 7100 4450 50  0000 C CNN
F 1 "Motor Out" H 7100 4150 50  0000 C CNN
F 2 "Pin_Headers:Pin_Header_Straight_1x02" H 7100 4350 50  0001 C CNN
F 3 "" H 7100 4350 50  0001 C CNN
	1    7100 4350
	-1   0    0    1   
$EndComp
Text GLabel 6750 3650 3    60   Input ~ 0
MA
Text GLabel 6950 3650 3    60   Input ~ 0
MB
Text GLabel 7300 4350 2    43   Input ~ 0
MA
Text GLabel 7300 4250 2    43   Input ~ 0
MB
$Comp
L Bluetooth U2
U 1 1 5A4E5AB2
P 3225 3225
F 0 "U2" H 3475 3075 60  0000 C CNN
F 1 "Bluetooth" H 3475 3825 60  0000 C CNN
F 2 "hc06:hc-06" H 3225 3225 60  0001 C CNN
F 3 "" H 3225 3225 60  0001 C CNN
	1    3225 3225
	-1   0    0    1   
$EndComp
$Comp
L +5V #PWR010
U 1 1 5A4E5B28
P 3375 3575
F 0 "#PWR010" H 3375 3425 50  0001 C CNN
F 1 "+5V" V 3375 3775 50  0000 C CNN
F 2 "" H 3375 3575 50  0001 C CNN
F 3 "" H 3375 3575 50  0001 C CNN
	1    3375 3575
	0    1    1    0   
$EndComp
Text GLabel 5550 3450 2    41   Input ~ 0
D10
Text GLabel 3375 3375 2    41   Input ~ 0
D10
$Comp
L Conn_01x02 J2
U 1 1 5A4E7805
P 3500 1750
F 0 "J2" H 3500 1850 50  0000 C CNN
F 1 "POWER" H 3500 1550 50  0000 C CNN
F 2 "Pin_Headers:Pin_Header_Straight_1x02" H 3500 1750 50  0001 C CNN
F 3 "" H 3500 1750 50  0001 C CNN
	1    3500 1750
	-1   0    0    1   
$EndComp
$Comp
L +12V #PWR011
U 1 1 5A4E78A6
P 3700 1750
F 0 "#PWR011" H 3700 1600 50  0001 C CNN
F 1 "+12V" V 3700 2000 50  0000 C CNN
F 2 "" H 3700 1750 50  0001 C CNN
F 3 "" H 3700 1750 50  0001 C CNN
	1    3700 1750
	0    1    1    0   
$EndComp
$Comp
L GND #PWR012
U 1 1 5A4E78E5
P 3700 1650
F 0 "#PWR012" H 3700 1400 50  0001 C CNN
F 1 "GND" V 3700 1450 50  0000 C CNN
F 2 "" H 3700 1650 50  0001 C CNN
F 3 "" H 3700 1650 50  0001 C CNN
	1    3700 1650
	0    -1   -1   0   
$EndComp
$Comp
L GND #PWR013
U 1 1 5A4F20AE
P 4350 2650
F 0 "#PWR013" H 4350 2400 50  0001 C CNN
F 1 "GND" V 4350 2450 50  0000 C CNN
F 2 "" H 4350 2650 50  0001 C CNN
F 3 "" H 4350 2650 50  0001 C CNN
	1    4350 2650
	0    1    1    0   
$EndComp
$Comp
L +5V #PWR014
U 1 1 5A4F61B8
P 5550 2650
F 0 "#PWR014" H 5550 2500 50  0001 C CNN
F 1 "+5V" V 5550 2850 50  0000 C CNN
F 2 "" H 5550 2650 50  0001 C CNN
F 3 "" H 5550 2650 50  0001 C CNN
	1    5550 2650
	0    1    1    0   
$EndComp
$Comp
L +5V #PWR015
U 1 1 5A4F756D
P 3850 4450
F 0 "#PWR015" H 3850 4300 50  0001 C CNN
F 1 "+5V" V 3850 4650 50  0000 C CNN
F 2 "" H 3850 4450 50  0001 C CNN
F 3 "" H 3850 4450 50  0001 C CNN
	1    3850 4450
	-1   0    0    1   
$EndComp
$Comp
L +5V #PWR016
U 1 1 5A4F75B1
P 4925 4575
F 0 "#PWR016" H 4925 4425 50  0001 C CNN
F 1 "+5V" V 4925 4775 50  0000 C CNN
F 2 "" H 4925 4575 50  0001 C CNN
F 3 "" H 4925 4575 50  0001 C CNN
	1    4925 4575
	-1   0    0    1   
$EndComp
$Comp
L +5V #PWR017
U 1 1 5A4F75F5
P 6000 4500
F 0 "#PWR017" H 6000 4350 50  0001 C CNN
F 1 "+5V" V 6000 4700 50  0000 C CNN
F 2 "" H 6000 4500 50  0001 C CNN
F 3 "" H 6000 4500 50  0001 C CNN
	1    6000 4500
	-1   0    0    1   
$EndComp
$Comp
L +5V #PWR018
U 1 1 5A4F782C
P 6250 3100
F 0 "#PWR018" H 6250 2950 50  0001 C CNN
F 1 "+5V" V 6250 3300 50  0000 C CNN
F 2 "" H 6250 3100 50  0001 C CNN
F 3 "" H 6250 3100 50  0001 C CNN
	1    6250 3100
	0    -1   -1   0   
$EndComp
$Comp
L +5V #PWR019
U 1 1 5A4F794E
P 6250 2900
F 0 "#PWR019" H 6250 2750 50  0001 C CNN
F 1 "+5V" V 6250 3100 50  0000 C CNN
F 2 "" H 6250 2900 50  0001 C CNN
F 3 "" H 6250 2900 50  0001 C CNN
	1    6250 2900
	0    -1   -1   0   
$EndComp
$Comp
L GND #PWR020
U 1 1 5A4F8BDB
P 5550 2450
F 0 "#PWR020" H 5550 2200 50  0001 C CNN
F 1 "GND" V 5550 2250 50  0000 C CNN
F 2 "" H 5550 2450 50  0001 C CNN
F 3 "" H 5550 2450 50  0001 C CNN
	1    5550 2450
	0    -1   -1   0   
$EndComp
Wire Wire Line
	4350 2350 4050 2350
$Comp
L +5V #PWR021
U 1 1 5A4E236C
P 3050 2350
F 0 "#PWR021" H 3050 2200 50  0001 C CNN
F 1 "+5V" V 3050 2550 50  0000 C CNN
F 2 "" H 3050 2350 50  0001 C CNN
F 3 "" H 3050 2350 50  0001 C CNN
	1    3050 2350
	0    -1   -1   0   
$EndComp
Wire Wire Line
	4350 2450 4050 2450
Wire Wire Line
	4925 4575 4925 4300
Wire Wire Line
	6000 4500 6000 4300
$Comp
L LM2575-5.0BT U6
U 1 1 5AC0D618
P 9325 2175
F 0 "U6" H 8925 2425 50  0000 L CNN
F 1 "LM2575-5.0BT" H 9325 2425 50  0000 L CNN
F 2 "lm2575:lm2575-bt" H 9325 1925 50  0001 L CIN
F 3 "" H 9325 2175 50  0001 C CNN
	1    9325 2175
	1    0    0    -1  
$EndComp
$Comp
L +12V #PWR022
U 1 1 5AC0DC6A
P 8550 2075
F 0 "#PWR022" H 8550 1925 50  0001 C CNN
F 1 "+12V" V 8550 2325 50  0000 C CNN
F 2 "" H 8550 2075 50  0001 C CNN
F 3 "" H 8550 2075 50  0001 C CNN
	1    8550 2075
	0    -1   -1   0   
$EndComp
$Comp
L CP CIN1
U 1 1 5AC0E0D7
P 8700 1825
F 0 "CIN1" H 8725 1925 50  0000 L CNN
F 1 "100uF" H 8725 1725 50  0000 L CNN
F 2 "Capacitors_SMD:c_elec_6.3x7.7" H 8738 1675 50  0001 C CNN
F 3 "" H 8700 1825 50  0000 C CNN
	1    8700 1825
	-1   0    0    1   
$EndComp
Wire Wire Line
	8825 2075 8550 2075
Wire Wire Line
	8700 1975 8700 2075
Connection ~ 8700 2075
$Comp
L GND #PWR023
U 1 1 5AC0E68A
P 8700 1675
F 0 "#PWR023" H 8700 1425 50  0001 C CNN
F 1 "GND" V 8700 1475 50  0000 C CNN
F 2 "" H 8700 1675 50  0001 C CNN
F 3 "" H 8700 1675 50  0001 C CNN
	1    8700 1675
	-1   0    0    1   
$EndComp
$Comp
L GND #PWR024
U 1 1 5AC0EB1A
P 9325 2475
F 0 "#PWR024" H 9325 2225 50  0001 C CNN
F 1 "GND" V 9325 2275 50  0000 C CNN
F 2 "" H 9325 2475 50  0001 C CNN
F 3 "" H 9325 2475 50  0001 C CNN
	1    9325 2475
	1    0    0    -1  
$EndComp
$Comp
L GND #PWR025
U 1 1 5AC0EBF9
P 8825 2275
F 0 "#PWR025" H 8825 2025 50  0001 C CNN
F 1 "GND" V 8825 2075 50  0000 C CNN
F 2 "" H 8825 2275 50  0001 C CNN
F 3 "" H 8825 2275 50  0001 C CNN
	1    8825 2275
	0    1    1    0   
$EndComp
$Comp
L INDUCTOR L1
U 1 1 5AC0EE27
P 10275 2275
F 0 "L1" V 10225 2275 50  0000 C CNN
F 1 "INDUCTOR" V 10375 2275 50  0000 C CNN
F 2 "Inductors:INDUCTOR_V" H 10275 2275 50  0001 C CNN
F 3 "" H 10275 2275 50  0000 C CNN
	1    10275 2275
	0    -1   -1   0   
$EndComp
Wire Wire Line
	9975 2275 9825 2275
$Comp
L D_Schottky_Small D1
U 1 1 5AC0F294
P 9900 2500
F 0 "D1" H 9850 2580 50  0000 L CNN
F 1 "1N5822" H 9775 2400 50  0000 L CNN
F 2 "Diodes_SMD:DO-214AB" V 9900 2500 50  0001 C CNN
F 3 "" V 9900 2500 50  0000 C CNN
	1    9900 2500
	0    1    1    0   
$EndComp
Connection ~ 9900 2275
Wire Wire Line
	9900 2400 9900 2275
$Comp
L GND #PWR026
U 1 1 5AC0F8E7
P 9900 2600
F 0 "#PWR026" H 9900 2350 50  0001 C CNN
F 1 "GND" V 9900 2400 50  0000 C CNN
F 2 "" H 9900 2600 50  0001 C CNN
F 3 "" H 9900 2600 50  0001 C CNN
	1    9900 2600
	1    0    0    -1  
$EndComp
$Comp
L CP COUT1
U 1 1 5AC0FB49
P 10575 2550
F 0 "COUT1" H 10600 2650 50  0000 L CNN
F 1 "330uF" H 10600 2450 50  0000 L CNN
F 2 "Capacitors_SMD:c_elec_8x10" H 10613 2400 50  0001 C CNN
F 3 "" H 10575 2550 50  0000 C CNN
	1    10575 2550
	1    0    0    -1  
$EndComp
$Comp
L GND #PWR027
U 1 1 5AC0FEF9
P 10575 2700
F 0 "#PWR027" H 10575 2450 50  0001 C CNN
F 1 "GND" V 10575 2500 50  0000 C CNN
F 2 "" H 10575 2700 50  0001 C CNN
F 3 "" H 10575 2700 50  0001 C CNN
	1    10575 2700
	1    0    0    -1  
$EndComp
Wire Wire Line
	10575 2075 10575 2400
$Comp
L +5V #PWR028
U 1 1 5AC104FF
P 10675 2275
F 0 "#PWR028" H 10675 2125 50  0001 C CNN
F 1 "+5V" V 10675 2475 50  0000 C CNN
F 2 "" H 10675 2275 50  0001 C CNN
F 3 "" H 10675 2275 50  0001 C CNN
	1    10675 2275
	0    1    1    0   
$EndComp
Wire Wire Line
	10575 2275 10675 2275
Wire Wire Line
	9825 2075 10575 2075
Connection ~ 10575 2275
$Comp
L +5V #PWR029
U 1 1 5AC1E137
P 1725 2575
F 0 "#PWR029" H 1725 2425 50  0001 C CNN
F 1 "+5V" V 1725 2775 50  0000 C CNN
F 2 "" H 1725 2575 50  0001 C CNN
F 3 "" H 1725 2575 50  0001 C CNN
	1    1725 2575
	1    0    0    -1  
$EndComp
$Comp
L R R2
U 1 1 5AC1E335
P 1725 2725
F 0 "R2" V 1805 2725 50  0000 C CNN
F 1 "1K" V 1725 2725 50  0000 C CNN
F 2 "Resistors_SMD:R_2010" V 1655 2725 50  0001 C CNN
F 3 "" H 1725 2725 50  0001 C CNN
	1    1725 2725
	-1   0    0    1   
$EndComp
$Comp
L D D2
U 1 1 5AC1E46B
P 1400 2975
F 0 "D2" H 1400 3075 50  0000 C CNN
F 1 "D" H 1400 2875 50  0000 C CNN
F 2 "Diodes_SMD:DO-214AB" H 1400 2975 50  0001 C CNN
F 3 "" H 1400 2975 50  0000 C CNN
	1    1400 2975
	1    0    0    -1  
$EndComp
Wire Wire Line
	1550 2975 1725 2975
Wire Wire Line
	1725 2875 1725 3525
$Comp
L R R1
U 1 1 5AC1E5C5
P 1400 3225
F 0 "R1" V 1480 3225 50  0000 C CNN
F 1 "1K" V 1400 3225 50  0000 C CNN
F 2 "Resistors_SMD:R_2010" V 1330 3225 50  0001 C CNN
F 3 "" H 1400 3225 50  0001 C CNN
	1    1400 3225
	0    -1   -1   0   
$EndComp
Wire Wire Line
	1725 3225 1550 3225
Connection ~ 1725 2975
Connection ~ 1725 3225
Wire Wire Line
	1250 2975 1125 2975
Wire Wire Line
	1125 2975 1125 3325
Wire Wire Line
	900  3225 1250 3225
Connection ~ 1125 3225
$Comp
L C C1
U 1 1 5AC1ED39
P 1125 3475
F 0 "C1" H 1150 3575 50  0000 L CNN
F 1 "C" H 1150 3375 50  0000 L CNN
F 2 "Capacitors_SMD:C_1206" H 1163 3325 50  0001 C CNN
F 3 "" H 1125 3475 50  0000 C CNN
	1    1125 3475
	1    0    0    -1  
$EndComp
$Comp
L GND #PWR030
U 1 1 5AC1EEA3
P 1125 3625
F 0 "#PWR030" H 1125 3375 50  0001 C CNN
F 1 "GND" V 1125 3425 50  0000 C CNN
F 2 "" H 1125 3625 50  0001 C CNN
F 3 "" H 1125 3625 50  0001 C CNN
	1    1125 3625
	1    0    0    -1  
$EndComp
$Comp
L SW_PUSH SW1
U 1 1 5AC1FBA7
P 1725 3825
F 0 "SW1" H 1875 3935 50  0000 C CNN
F 1 "SW_PUSH" H 1725 3745 50  0000 C CNN
F 2 "Pin_Headers:Pin_Header_Straight_1x02" H 1725 3825 50  0001 C CNN
F 3 "" H 1725 3825 50  0000 C CNN
	1    1725 3825
	0    1    1    0   
$EndComp
Wire Wire Line
	3850 4450 3850 4300
$Comp
L R R4
U 1 1 5AC20DC9
P 4200 3450
F 0 "R4" V 4280 3450 50  0000 C CNN
F 1 "1K" V 4200 3450 50  0000 C CNN
F 2 "Resistors_SMD:R_2010" V 4130 3450 50  0001 C CNN
F 3 "" H 4200 3450 50  0001 C CNN
	1    4200 3450
	0    -1   -1   0   
$EndComp
$Comp
L GND #PWR031
U 1 1 5AC20F29
P 3800 3750
F 0 "#PWR031" H 3800 3500 50  0001 C CNN
F 1 "GND" V 3800 3550 50  0000 C CNN
F 2 "" H 3800 3750 50  0001 C CNN
F 3 "" H 3800 3750 50  0001 C CNN
	1    3800 3750
	1    0    0    -1  
$EndComp
$Comp
L R R3
U 1 1 5AC2100C
P 3800 3600
F 0 "R3" V 3880 3600 50  0000 C CNN
F 1 "2K" V 3800 3600 50  0000 C CNN
F 2 "Resistors_SMD:R_2010" V 3730 3600 50  0001 C CNN
F 3 "" H 3800 3600 50  0001 C CNN
	1    3800 3600
	1    0    0    -1  
$EndComp
Wire Wire Line
	4050 3450 3800 3450
Wire Wire Line
	3800 3450 3800 3275
Wire Wire Line
	3800 3275 3375 3275
$Comp
L AL201P SP1
U 1 1 5AC21BB9
P 8625 3825
F 0 "SP1" H 8475 4075 50  0000 L BNN
F 1 "AL201P" H 8475 3700 50  0000 L BNN
F 2 "Buzzers_Beepers:Buzzer_12x9.5RM7.6" H 8625 3975 50  0001 C CNN
F 3 "" H 8625 3825 60  0000 C CNN
	1    8625 3825
	1    0    0    -1  
$EndComp
Text GLabel 4350 3150 0    41   Input ~ 0
D6
Text GLabel 8425 3825 0    41   Input ~ 0
D6
$Comp
L GND #PWR032
U 1 1 5AC222E9
P 8825 3825
F 0 "#PWR032" H 8825 3575 50  0001 C CNN
F 1 "GND" V 8825 3625 50  0000 C CNN
F 2 "" H 8825 3825 50  0001 C CNN
F 3 "" H 8825 3825 50  0001 C CNN
	1    8825 3825
	0    -1   -1   0   
$EndComp
$EndSCHEMATC
