M48
;DRILL file {KiCad 4.0.7-e2-6376~58~ubuntu17.04.1} date Tue Jan  9 13:37:07 2018
;FORMAT={-:-/ absolute / inch / decimal}
FMAT,2
INCH,TZ
T1C0.024
T2C0.030
T3C0.031
T4C0.033
T5C0.039
T6C0.157
%
G90
G05
M72
T1
X1.955Y0.745
X2.055Y0.745
T2
X0.835Y2.805
X0.905Y1.53
X0.935Y2.805
X1.005Y1.53
X1.035Y2.805
X1.105Y1.53
X1.135Y2.805
X1.205Y1.53
X1.235Y2.805
X1.335Y2.805
X1.435Y2.805
X1.71Y1.23
X1.71Y0.63
X1.81Y1.23
X1.81Y0.63
X1.91Y1.23
X1.91Y0.63
X2.01Y1.23
X2.01Y0.63
X2.11Y1.23
X2.11Y0.63
X2.21Y1.23
X2.21Y0.63
X2.31Y1.23
X2.31Y0.63
X2.41Y1.23
X2.41Y0.63
X2.51Y1.23
X2.51Y0.63
X2.61Y1.23
X2.61Y0.63
X2.71Y1.23
X2.71Y0.63
X2.81Y1.23
X2.81Y0.63
T3
X2.025Y1.7
X2.325Y1.7
X2.365Y0.745
X2.465Y0.745
X2.5Y1.575
X2.6378Y1.575
T4
X3.3Y1.1
X3.3Y1.
X3.3Y0.9
T5
X0.4718Y2.3956
X0.4718Y2.2381
X0.485Y1.505
X0.585Y1.505
X1.53Y1.46
X1.56Y0.305
X1.66Y0.305
X1.75Y1.46
X1.76Y0.305
X1.91Y0.405
X1.91Y0.105
X2.06Y0.305
X2.16Y0.305
X2.26Y0.305
X2.3798Y2.3956
X2.3798Y2.2381
X2.41Y0.405
X2.41Y0.105
X2.56Y0.305
X2.66Y0.305
X2.7547Y2.555
X2.7547Y2.0826
X2.76Y0.305
X2.85Y1.575
X2.95Y1.575
X3.0015Y0.66
X3.0405Y1.852
X3.05Y1.575
X3.0625Y0.4075
X3.0625Y0.1075
X3.07Y1.14
X3.07Y0.84
X3.15Y1.575
X3.235Y2.555
X3.235Y2.0826
X3.27Y0.392
X3.3137Y2.3188
X3.5Y0.38
X3.51Y2.605
X3.51Y2.005
X3.51Y1.63
X3.6378Y0.38
X3.6478Y1.63
X3.86Y2.455
X3.86Y2.355
X3.86Y2.155
X3.86Y2.055
X3.9045Y1.874
T6
X0.19Y2.9
X0.19Y0.17
X3.975Y2.9
X3.98Y0.17
T0
M30
