G04 #@! TF.FileFunction,Copper,L1,Top,Signal*
%FSLAX46Y46*%
G04 Gerber Fmt 4.6, Leading zero omitted, Abs format (unit mm)*
G04 Created by KiCad (PCBNEW 4.0.7-e2-6376~58~ubuntu17.04.1) date Tue Jan  9 13:37:05 2018*
%MOMM*%
%LPD*%
G01*
G04 APERTURE LIST*
%ADD10C,0.100000*%
%ADD11C,4.000000*%
%ADD12O,1.524000X2.500000*%
%ADD13C,3.000000*%
%ADD14O,1.800000X2.500000*%
%ADD15O,1.800000X2.700000*%
%ADD16C,2.500000*%
%ADD17R,1.800000X2.500000*%
%ADD18C,2.000000*%
%ADD19O,2.000000X2.000000*%
%ADD20O,2.500000X2.500000*%
%ADD21R,2.500000X2.500000*%
%ADD22R,1.800000X3.000000*%
%ADD23O,1.800000X3.000000*%
%ADD24R,2.500000X1.800000*%
%ADD25O,2.500000X1.800000*%
%ADD26O,2.500000X1.890000*%
%ADD27R,2.200000X2.200000*%
%ADD28C,2.200000*%
%ADD29C,1.000000*%
%ADD30C,0.400000*%
G04 APERTURE END LIST*
D10*
D11*
X4826000Y4318000D03*
X4826000Y73660000D03*
X101092000Y4318000D03*
D12*
X36449000Y71247000D03*
X33909000Y71247000D03*
X31369000Y71247000D03*
X28829000Y71247000D03*
X26289000Y71247000D03*
X23749000Y71247000D03*
X21209000Y71247000D03*
D13*
X60446000Y60847000D03*
X60446000Y56847000D03*
X11984000Y60847000D03*
X11984000Y56847000D03*
D14*
X71374000Y31242000D03*
X68834000Y31242000D03*
X66294000Y31242000D03*
X63754000Y31242000D03*
X61214000Y31242000D03*
X58674000Y31242000D03*
X56134000Y31242000D03*
X53594000Y31242000D03*
X51054000Y31242000D03*
X48514000Y31242000D03*
X45974000Y31242000D03*
X43434000Y31242000D03*
X71374000Y16002000D03*
X68834000Y16002000D03*
X66294000Y16002000D03*
X63754000Y16002000D03*
X61214000Y16002000D03*
X58674000Y16002000D03*
X56134000Y16002000D03*
X53594000Y16002000D03*
X51054000Y16002000D03*
X48514000Y16002000D03*
X45974000Y16002000D03*
X43434000Y16002000D03*
D15*
X62611000Y19323000D03*
X60071000Y19323000D03*
X52197000Y19323000D03*
X49657000Y19323000D03*
D16*
X82169000Y64897000D03*
X82169000Y52897000D03*
X69969000Y64897000D03*
X69969000Y52897000D03*
X84169000Y58897000D03*
D17*
X89154000Y41402000D03*
D16*
X92654000Y41402000D03*
D18*
X59055000Y43180000D03*
D19*
X51435000Y43180000D03*
D16*
X89154000Y66167000D03*
D20*
X89154000Y50927000D03*
D21*
X88900000Y9652000D03*
D16*
X92400000Y9652000D03*
D21*
X77978000Y28956000D03*
D20*
X77978000Y21336000D03*
D22*
X14859000Y38227000D03*
D23*
X12319000Y38227000D03*
D24*
X98044000Y59817000D03*
D25*
X98044000Y62357000D03*
D16*
X48514000Y2667000D03*
D20*
X48514000Y10287000D03*
D16*
X61214000Y2667000D03*
D20*
X61214000Y10287000D03*
D16*
X77787500Y2730500D03*
D20*
X77787500Y10350500D03*
D24*
X98044000Y54737000D03*
D25*
X98044000Y52197000D03*
D17*
X44704000Y7747000D03*
D14*
X42164000Y7747000D03*
X39624000Y7747000D03*
D17*
X57404000Y7747000D03*
D14*
X54864000Y7747000D03*
X52324000Y7747000D03*
D17*
X65024000Y7747000D03*
D14*
X67564000Y7747000D03*
X70104000Y7747000D03*
D17*
X72390000Y40005000D03*
D14*
X74930000Y40005000D03*
X77470000Y40005000D03*
X80010000Y40005000D03*
X28067000Y38862000D03*
X30607000Y38862000D03*
X25527000Y38862000D03*
X22987000Y38862000D03*
D26*
X83820000Y25400000D03*
D25*
X83820000Y27940000D03*
X83820000Y22860000D03*
D11*
X100965000Y73660000D03*
D27*
X63500000Y40005000D03*
D28*
X67000000Y40005000D03*
D16*
X77228700Y47040800D03*
X99174300Y47599600D03*
X76238100Y16764000D03*
X83058000Y9956800D03*
X44450000Y37084000D03*
X38862000Y37084000D03*
D29*
X77863700Y47675800D02*
X77228700Y47040800D01*
X99098100Y47675800D02*
X77863700Y47675800D01*
X99174300Y47599600D02*
X99098100Y47675800D01*
D30*
X76250800Y16764000D02*
X76238100Y16764000D01*
D29*
X83058000Y9956800D02*
X76250800Y16764000D01*
X44450000Y37084000D02*
X38862000Y37084000D01*
M02*
