G04 #@! TF.FileFunction,Soldermask,Top*
%FSLAX46Y46*%
G04 Gerber Fmt 4.6, Leading zero omitted, Abs format (unit mm)*
G04 Created by KiCad (PCBNEW 4.0.2+dfsg1-stable) date Sal 03 Nis 2018 11:32:30 +03*
%MOMM*%
G01*
G04 APERTURE LIST*
%ADD10C,0.100000*%
%ADD11R,1.400000X2.000000*%
%ADD12R,2.000200X3.999180*%
%ADD13R,3.900120X2.800300*%
%ADD14R,3.600000X3.000000*%
%ADD15R,2.432000X2.432000*%
%ADD16O,2.432000X2.432000*%
%ADD17R,2.305000X2.305000*%
%ADD18C,2.305000*%
%ADD19R,1.400000X2.900000*%
%ADD20R,2.432000X2.127200*%
%ADD21O,2.432000X2.127200*%
%ADD22O,2.300000X3.000000*%
%ADD23O,1.924000X2.900000*%
%ADD24C,3.400000*%
%ADD25O,3.448000X1.670000*%
%ADD26C,1.924000*%
%ADD27C,1.900000*%
%ADD28C,4.464000*%
%ADD29R,2.400000X2.400000*%
%ADD30C,2.400000*%
%ADD31C,1.000000*%
G04 APERTURE END LIST*
D10*
D11*
X5183000Y49276000D03*
X2183000Y49276000D03*
D12*
X65913000Y53637180D03*
X65913000Y59138820D03*
D13*
X51485800Y14986000D03*
X57988200Y14986000D03*
D14*
X65913000Y49320000D03*
X65913000Y42120000D03*
X43561000Y2198000D03*
X43561000Y9398000D03*
D15*
X3810000Y55245000D03*
D16*
X3810000Y52705000D03*
D15*
X65151000Y16510000D03*
D16*
X65151000Y13970000D03*
D17*
X57531000Y5080000D03*
D18*
X52451000Y5080000D03*
D19*
X33237000Y17526000D03*
X38137000Y17526000D03*
X25363000Y17526000D03*
X30263000Y17526000D03*
X40857000Y17526000D03*
X45757000Y17526000D03*
X45757000Y13462000D03*
X40857000Y13462000D03*
D15*
X3683000Y29972000D03*
D16*
X3683000Y32512000D03*
D15*
X3683000Y11684000D03*
D16*
X3683000Y14224000D03*
D15*
X3683000Y17780000D03*
D16*
X3683000Y20320000D03*
D15*
X3683000Y23876000D03*
D16*
X3683000Y26416000D03*
D20*
X3683000Y36068000D03*
D21*
X3683000Y38608000D03*
X3683000Y41148000D03*
X3683000Y43688000D03*
D22*
X17018000Y36830000D03*
X19558000Y36830000D03*
X14478000Y36830000D03*
X11938000Y36830000D03*
D23*
X34925000Y66675000D03*
X32385000Y66675000D03*
X29845000Y66675000D03*
X27305000Y66675000D03*
X24765000Y66675000D03*
X22225000Y66675000D03*
X19685000Y66675000D03*
D24*
X58922000Y56275000D03*
X58922000Y52275000D03*
X10460000Y56275000D03*
X10460000Y52275000D03*
D25*
X59817000Y30226000D03*
X59817000Y31927800D03*
X59817000Y33629600D03*
X59817000Y28524200D03*
X59817000Y26822400D03*
D26*
X54483000Y37592000D03*
X51943000Y37592000D03*
X49403000Y37592000D03*
X46863000Y37592000D03*
X44323000Y37592000D03*
X41783000Y37592000D03*
X39243000Y37592000D03*
X36703000Y37592000D03*
X34163000Y37592000D03*
X31623000Y37592000D03*
X29083000Y37592000D03*
X26543000Y37592000D03*
X54483000Y22352000D03*
X51943000Y22352000D03*
X49403000Y22352000D03*
X46863000Y22352000D03*
X44323000Y22352000D03*
X41783000Y22352000D03*
X39243000Y22352000D03*
X36703000Y22352000D03*
X34163000Y22352000D03*
X31623000Y22352000D03*
X29083000Y22352000D03*
X26543000Y22352000D03*
D27*
X45720000Y25273000D03*
X43180000Y25273000D03*
X35306000Y25273000D03*
X32766000Y25273000D03*
D28*
X66167000Y3302000D03*
X66167000Y66040000D03*
X3175000Y66040000D03*
X3175000Y3810000D03*
D29*
X27813000Y8382000D03*
D30*
X35413000Y8382000D03*
D31*
X32131000Y32258000D03*
X25019000Y25146000D03*
X22479000Y22860000D03*
X26797000Y17780000D03*
X18669000Y47244000D03*
X20955000Y47244000D03*
X62357000Y37084000D03*
X27813000Y18034000D03*
X34671000Y20320000D03*
X23749000Y42926000D03*
X37719000Y42926000D03*
X21463000Y41148000D03*
X39243000Y41148000D03*
X36703000Y11430000D03*
X26035000Y14732000D03*
X37973000Y14732000D03*
X22733000Y15494000D03*
X37211000Y26924000D03*
X20701000Y21590000D03*
X22987000Y26162000D03*
X27813000Y31242000D03*
M02*
