<?xml version="1.0" encoding="UTF-8" standalone="no"?>
<!-- Created with Inkscape (http://www.inkscape.org/) -->

<svg
   xmlns:dc="http://purl.org/dc/elements/1.1/"
   xmlns:cc="http://creativecommons.org/ns#"
   xmlns:rdf="http://www.w3.org/1999/02/22-rdf-syntax-ns#"
   xmlns:svg="http://www.w3.org/2000/svg"
   xmlns="http://www.w3.org/2000/svg"
   xmlns:sodipodi="http://sodipodi.sourceforge.net/DTD/sodipodi-0.dtd"
   xmlns:inkscape="http://www.inkscape.org/namespaces/inkscape"
   width="210mm"
   height="297mm"
   viewBox="0 0 210 297"
   version="1.1"
   id="svg77555"
   inkscape:version="0.92.1 r15371"
   sodipodi:docname="enter.svg">
  <defs
     id="defs77549" />
  <sodipodi:namedview
     id="base"
     pagecolor="#ffffff"
     bordercolor="#666666"
     borderopacity="1.0"
     inkscape:pageopacity="0.0"
     inkscape:pageshadow="2"
     inkscape:zoom="0.98994949"
     inkscape:cx="249.81909"
     inkscape:cy="290.50424"
     inkscape:document-units="mm"
     inkscape:current-layer="layer1"
     showgrid="false"
     inkscape:window-width="1920"
     inkscape:window-height="1031"
     inkscape:window-x="0"
     inkscape:window-y="0"
     inkscape:window-maximized="1" />
  <metadata
     id="metadata77552">
    <rdf:RDF>
      <cc:Work
         rdf:about="">
        <dc:format>image/svg+xml</dc:format>
        <dc:type
           rdf:resource="http://purl.org/dc/dcmitype/StillImage" />
        <dc:title></dc:title>
      </cc:Work>
    </rdf:RDF>
  </metadata>
  <g
     inkscape:label="Layer 1"
     inkscape:groupmode="layer"
     id="layer1">
    <g
       id="g78133"
       inkscape:export-filename="/home/arnes/workspace/rlock-hmi/rlock-interface/mobile/res/img/enter-icon.png"
       inkscape:export-xdpi="39.700001"
       inkscape:export-ydpi="39.700001">
      <path
         inkscape:connector-curvature="0"
         id="path77538"
         d="m 113.21507,225.88941 c -2.77809,-0.8477 -4.96453,-2.73419 -6.1451,-5.30232 -0.70288,-1.52936 -0.74079,-2.00553 -0.84293,-10.64408 l -0.10767,-9.04345 h 3.22727 3.2272 v 8.31175 8.31251 l 0.99404,1.13129 0.99291,1.13128 h 23.10436 c 25.63223,0 24.105,0.1289 25.04141,-2.11244 0.66497,-1.59001 0.66497,-63.33069 0,-64.92146 -0.93679,-2.24134 0.59067,-2.11244 -25.04141,-2.11244 h -23.10436 l -0.99291,1.13204 -0.99404,1.13129 v 8.31175 8.31252 h -3.2272 -3.22727 l 0.10767,-9.04345 c 0.097,-8.63932 0.14028,-9.11549 0.84293,-10.64409 0.93035,-2.02448 2.34461,-3.50531 4.38441,-4.59034 l 1.60063,-0.8515 23.97997,-0.0834 c 26.54734,-0.0986 26.00983,-0.13648 28.73652,1.94562 0.87856,0.66725 1.75826,1.78413 2.42217,3.0663 l 1.04257,2.01463 v 33.87711 33.87635 l -1.04257,2.01463 c -0.66194,1.27838 -1.54391,2.39602 -2.41505,3.06099 -2.70484,2.06315 -2.18629,2.026 -28.21242,1.99567 -12.95298,0 -23.9109,-0.13648 -24.35113,-0.27296 z m 6.54363,-20.64214 c -0.56033,-0.40945 -0.6316,-0.94097 -0.72411,-5.44184 l -0.10767,-4.98842 -9.34098,-0.002 c -9.798502,-0.002 -11.383582,-0.18198 -12.212712,-1.36255 -0.72487,-1.03499 -0.72487,-15.4437 0,-16.47869 0.82996,-1.18443 2.41368,-1.36034 12.235312,-1.36262 l 9.3635,-0.002 v -4.72986 c 0,-5.47066 0.23429,-6.15383 2.1094,-6.15383 1.00057,0 2.28873,1.01983 12.78685,10.12166 6.42065,5.56619 11.67384,10.2316 11.67384,10.36581 0,0.13648 -5.25319,4.80038 -11.67384,10.36657 -12.27095,10.63877 -12.53587,10.82075 -14.11474,9.66748 z"
         style="fill:#ffffff;fill-opacity:1;stroke-width:0.32012162;enable-background:new" />
      <rect
         y="144.27956"
         x="92.085907"
         height="81.893997"
         width="81.893997"
         id="rect78125"
         style="fill:none;fill-opacity:1;stroke:none;stroke-width:0.40269658;stroke-miterlimit:4;stroke-dasharray:none;stroke-dashoffset:0;stroke-opacity:1" />
    </g>
  </g>
</svg>
